MonarchR Basics • monarchr
…
cf <- monarch_search("Cystic Fibrosis", limit = 1) %>%
    fetch_edges(result_categories = "biolink:Gene") %>%
    fetch_edges(direction = "out", predicates = "biolink:has_phenotype")

## Joining with `by = join_by(id, category, pcategory, iri, synonym, name, description, provided_by)`
## Joining with `by = join_by(id, category, pcategory, iri, synonym, name, description, provided_by, in_taxon_label, symbol, xref, full_name, in_taxon)`

shared_nodes <- inner_join(nodes(fa), nodes(cf))

## Joining with `by = join_by(id, category, pcategory, iri, synonym, name, description, provided_by, in_taxon_label, symbol, full_name, xref, in_taxon)`

shared_nodes

## # A tibble: 142 × 13
##    id         category     pcategory                 iri                                       synonym      name                               description                                                                                        provided_by in_taxon_label symbol full_name xref  in_taxon
##    <chr>      <named list> <chr>                     <chr>                                     <named list> <chr>                              <chr>                                                                                              <named lis> <chr>          <chr>  <chr>     <nam> <named >
##  1 HP:0002027 <chr [6]>    biolink:PhenotypicFeature http://purl.obolibrary.org/obo/HP_0002027 <chr [7]>    Abdominal pain                     "An unpleasant sensation characterized by physical discomfort (such as pricking, throbbing, or ac… <chr [1]>   NA             NA     NA        <lgl> <lgl>   
##  2 HP:0001738 <chr [6]>    biolink:PhenotypicFeature http://purl.obolibrary.org/obo/HP_0001738 <chr [2]>    Exocrine pancreatic insufficiency  "Impaired function of the exocrine pancreas associated with a reduced ability to digest foods bec… <chr [1]>   NA             NA     NA        <lgl> <lgl>   
##  3 HP:0002039 <chr [6]>    biolink:PhenotypicFeature http://purl.obolibrary.org/obo/HP_0002039 <chr [1]>    Anorexia                           "Anorexia, or the loss of appetite for food, is a medical condition."                              <chr [1]>   NA             NA     NA        <lgl> <lgl>   
##  4 HP:0001249 <chr [6]>    biolink:PhenotypicFeature http://purl.obolibrary.org/obo/HP_0001249 <chr [10]>   Intellectual disability            "Subnormal intellectual functioning which originates during the developmental period. Intellectua… <chr [1]>   NA             NA     NA        <lgl> <lgl>   
##  5 HP:0001873 <chr [6]>    biolink:PhenotypicFeature http://purl.obolibrary.org/obo/HP_0001873 <chr [1]>    Thrombocytopenia                   "A reduction in the number of circulating thrombocytes."                                           <chr [1]>   NA             NA     NA        <lgl> <lgl>   
##  6 HP:0004322 <chr [6]>    biolink:PhenotypicFeature http://purl.obolibrary.org/obo/HP_0004322 <chr [5]>    Short stature                      "\"\"\"A height below that which is expected according to age and gender norms. Although there is… <chr [1]>   NA             NA     NA        <lgl> <lgl>   
##  7 HP:0000520 <chr [6]>    biolink:PhenotypicFeature http://purl.obolibrary.org/obo/HP_0000520 <chr [10]>   Proptosis                          "An eye that is protruding anterior to the plane of the face to a greater extent than is typical." <chr [1]>   NA             NA     NA        <lgl> <lgl>   
##  8 HP:0004396 <chr [6]>    biolink:PhenotypicFeature http://purl.obolibrary.org/obo/HP_0004396 <chr [4]>    Poor appetite                      "A reduced desire to eat."                                                                         <chr [1]>   NA             NA     NA        <lgl> <lgl>   
##  9 HP:0001945 <chr [6]>    biolink:PhenotypicFeature http://purl.obolibrary.org/obo/HP_0001945 <chr [3]>    Fever                              "Body temperature elevated above the normal range."                                                <chr [1]>   NA             NA     NA        <lgl> <lgl>   
## 10 HP:0012639 <chr [6]>    biolink:PhenotypicFeature http://purl.obolibrary.org/obo/HP_0012639 <chr [2]>    Abnormal nervous system morphology "A structural anomaly of the nervous system."                                                      <chr [1]>   NA             NA     NA        <lgl> <lgl>   
## # ℹ 132 more rows
…
eds_search %>%                                                 # starting with a graph with 5 disease nodes
    explode() %>%                                                # split into a list of 5 single-node graphs
    lapply(fetch_edges) %>%                                      # fetch neighborhood edges for each graph 
    lapply(nodes) %>%                                            # extract nodes df from each graph
    lapply(function(nodes_df) {filter(nodes_df, is.na(source))}) # remove original seached nodes from each df

## Joining with `by = join_by(id, category, pcategory, iri, synonym, name, description, provided_by)`
## Joining with `by = join_by(id, category, pcategory, iri, synonym, name, description, provided_by)`
## Joining with `by = join_by(id, category, pcategory, iri, synonym, name, description, provided_by)`
## Joining with `by = join_by(id, category, pcategory, iri, synonym, name, description, provided_by)`
## Joining with `by = join_by(id, category, pcategory, iri, synonym, name, description, provided_by)`

## [[1]]
## # A tibble: 54 × 14
##    id         category     pcategory                 iri                                       synonym      name               description                                                                                                 provided_by source in_taxon_label symbol full_name xref  in_taxon
##    <chr>      <named list> <chr>                     <chr>                                     <named list> <chr>              <chr>                                                                                                       <named lis> <chr>  <chr>          <chr>  <chr>     <nam> <named >
##  1 HP:0000938 <chr [6]>    biolink:PhenotypicFeature http://purl.obolibrary.org/obo/HP_0000938 <chr [3]>    Osteopenia         Osteopenia is a term to define bone density that is not normal but also not as low as osteoporosis. By def… <chr [1]>   NA     NA             NA     NA        <lgl> <lgl>   
##  2 HP:0003502 <chr [6]>    biolink:PhenotypicFeature http://purl.obolibrary.org/obo/HP_0003502 <chr [2]>    Mild short stature A mild degree of short stature, more than -2 SD but not more than -3 SD from mean corrected for age and se… <chr [1]>   NA     NA             NA     NA        <lgl> <lgl>   
##  3 HP:0001075 <chr [6]>    biolink:PhenotypicFeature http://purl.obolibrary.org/obo/HP_0001075 <chr [2]>    Atrophic scars     Scars that form a depression compared to the level of the surrounding skin because of damage to the collag… <chr [1]>   NA     NA             NA     NA        <lgl> <lgl>   
##  4 HP:0001027 <chr [6]>    biolink:PhenotypicFeature http://purl.obolibrary.org/obo/HP_0001027 <chr [1]>    Soft, doughy skin  A skin texture that is unusually soft (and may feel silky), and has a malleable consistency resembling tha… <chr [1]>   NA     NA             NA     NA        <lgl> <lgl>   
##  5 HP:0000023 <chr [6]>    biolink:PhenotypicFeature http://purl.obolibrary.org/obo/HP_0000023 <lgl [1]>    Inguinal hernia    Protrusion of the contents of the abdominal cavity through the inguinal canal.                              <chr [1]>   NA     NA             NA     NA        <lgl> <lgl>   
##  6 HP:0010547 <chr [6]>    biolink:PhenotypicFeature http://purl.obolibrary.org/obo/HP_0010547 <lgl [1]>    Muscle flaccidity  A type of paralysis in which a muscle becomes soft and yields to passive stretching, which results from lo… <chr [1]>   NA     NA             NA     NA        <lgl> <lgl>   
##  7 HP:0010529 <chr [6]>    biolink:PhenotypicFeature http://purl.obolibrary.org/obo/HP_0010529 <chr [4]>    Echolalia          The repetition of words or phrases that are odd or used in a nonsocial manner. These can be words or phras… <chr [1]>   NA     NA             NA     NA        <lgl> <lgl>   
##  8 HP:0001763 <chr [6]>    biolink:PhenotypicFeature http://purl.obolibrary.org/obo/HP_0001763 <chr [4]>    Pes planus         A foot where the longitudinal arch of the foot is in contact with the ground or floor when the individual … <chr [1]>   NA     NA             NA     NA        <lgl> <lgl>   
##  9 HP:0001373 <chr [6]>    biolink:PhenotypicFeature http://purl.obolibrary.org/obo/HP_0001373 <chr [2]>    Joint dislocation  Displacement or malalignment of joints.                                                                     <chr [1]>   NA     NA             NA     NA        <lgl> <lgl>   
## 10 HP:0001387 <chr [6]>    biolink:PhenotypicFeature http://purl.obolibrary.org/obo/HP_0001387 <chr [3]>    Joint stiffness    Joint stiffness is a perceived sensation of tightness in a joint or joints when attempting to move them af… <chr [1]>   NA     NA             NA     NA        <lgl> <lgl>   
## # ℹ 44 more rows
## 
## [[2]]
## # A tibble: 48 × 14
##    id            category     pcategory                 iri                                          synonym      name                                            description                                                              provided_by source in_taxon_label symbol full_name xref  in_taxon
##    <chr>         <named list> <chr>                     <chr>                                        <named list> <chr>                                           <chr>                                                                    <named lis> <chr>  <chr>          <chr>  <chr>     <nam> <named >
##  1 HP:0000007    <chr [6]>    biolink:PhenotypicFeature http://purl.obolibrary.org/obo/HP_0000007    <chr [4]>    Autosomal recessive inheritance                 A mode of inheritance that is observed for traits related to a gene enc… <chr [1]>   NA     NA             NA     NA        <lgl> <lgl>   
##  2 MONDO:0007526 <chr [6]>    biolink:Disease           http://purl.obolibrary.org/obo/MONDO_0007526 <chr [20]>   Ehlers-Danlos syndrome, spondylodysplastic type A form of Ehlers-Danlos syndrome characterized by a premature aging wit… <chr [1]>   NA     NA             NA     NA        <lgl> <lgl>   
##  3 MONDO:0016761 <chr [6]>    biolink:Disease           http://purl.obolibrary.org/obo/MONDO_0016761 <chr [2]>    spondyloepiphyseal dysplasia                    An osteochondrodysplasia that results in abnormalities of bone growth i… <chr [1]>   NA     NA             NA     NA        <lgl> <lgl>   
##  4 HP:0000592    <chr [6]>    biolink:PhenotypicFeature http://purl.obolibrary.org/obo/HP_0000592    <chr [7]>    Blue sclerae                                    An abnormal bluish coloration of the sclera.                             <chr [1]>   NA     NA             NA     NA        <lgl> <lgl>   
##  5 HP:0003370    <chr [6]>    biolink:PhenotypicFeature http://purl.obolibrary.org/obo/HP_0003370    <chr [5]>    Flat capital femoral epiphysis                  An abnormal flattening of the proximal epiphysis of the femur.           <chr [1]>   NA     NA             NA     NA        <lgl> <lgl>   
##  6 HP:0000938    <chr [6]>    biolink:PhenotypicFeature http://purl.obolibrary.org/obo/HP_0000938    <chr [3]>    Osteopenia                                      Osteopenia is a term to define bone density that is not normal but also… <chr [1]>   NA     NA             NA     NA        <lgl> <lgl>   
##  7 HP:0000465    <chr [6]>    biolink:PhenotypicFeature http://purl.obolibrary.org/obo/HP_0000465    <chr [3]>    Webbed neck                                     Pterygium colli is a congenital skin fold that runs along the sides of … <chr [1]>   NA     NA             NA     NA        <lgl> <lgl>   
##  8 HP:0001382    <chr [6]>    biolink:PhenotypicFeature http://purl.obolibrary.org/obo/HP_0001382    <chr [7]>    Joint hypermobility                             The ability of a joint to move beyond its normal range of motion.        <chr [1]>   NA     NA             NA     NA        <lgl> <lgl>   
##  9 HP:0000520    <chr [6]>    biolink:PhenotypicFeature http://purl.obolibrary.org/obo/HP_0000520    <chr [10]>   Proptosis                                       An eye that is protruding anterior to the plane of the face to a greate… <chr [1]>   NA     NA             NA     NA        <lgl> <lgl>   
## 10 HP:0010049    <chr [6]>    biolink:PhenotypicFeature http://purl.obolibrary.org/obo/HP_0010049    <chr [9]>    Short metacarpal                                Diminished length of one or more metacarpal bones in relation to the ot… <chr [1]>   NA     NA             NA     NA        <lgl> <lgl>   
## # ℹ 38 more rows
## 
## [[3]]
## # A tibble: 73 × 14
##    id         category     pcategory                 iri                                       synonym      name                    description                                                                                            provided_by source in_taxon_label symbol full_name xref  in_taxon
##    <chr>      <named list> <chr>                     <chr>                                     <named list> <chr>                   <chr>                                                                                                  <named lis> <chr>  <chr>          <chr>  <chr>     <nam> <named >
##  1 HP:0000015 <chr [6]>    biolink:PhenotypicFeature http://purl.obolibrary.org/obo/HP_0000015 <chr [1]>    Bladder diverticulum    Diverticulum (sac or pouch) in the wall of the urinary bladder.                                        <chr [1]>   NA     NA             NA     NA        <lgl> <lgl>   
##  2 HP:0002650 <chr [6]>    biolink:PhenotypicFeature http://purl.obolibrary.org/obo/HP_0002650 <lgl [1]>    Scoliosis               The presence of an abnormal lateral curvature of the spine.                                            <chr [1]>   NA     NA             NA     NA        <lgl> <lgl>   
##  3 HP:0000978 <chr [6]>    biolink:PhenotypicFeature http://purl.obolibrary.org/obo/HP_0000978 <chr [5]>    Bruising susceptibility An ecchymosis (bruise) refers to the skin discoloration caused by the escape of blood into the tissue… <chr [1]>   NA     NA             NA     NA        <lgl> <lgl>   
##  4 HP:0002758 <chr [6]>    biolink:PhenotypicFeature http://purl.obolibrary.org/obo/HP_0002758 <chr [1]>    Osteoarthritis          Degeneration (wear and tear) of articular cartilage, i.e., of the joint surface. Joint degeneration m… <chr [1]>   NA     NA             NA     NA        <lgl> <lgl>   
##  5 HP:0003834 <chr [6]>    biolink:PhenotypicFeature http://purl.obolibrary.org/obo/HP_0003834 <chr [1]>    Shoulder dislocation    A displacement or misalignment of the humerus with respect to the other bones of the should joint. No… <chr [1]>   NA     NA             NA     NA        <lgl> <lgl>   
##  6 HP:0002829 <chr [6]>    biolink:PhenotypicFeature http://purl.obolibrary.org/obo/HP_0002829 <chr [4]>    Arthralgia              Joint pain.                                                                                            <chr [1]>   NA     NA             NA     NA        <lgl> <lgl>   
##  7 HP:0000993 <chr [6]>    biolink:PhenotypicFeature http://purl.obolibrary.org/obo/HP_0000993 <chr [1]>    Molluscoid pseudotumors Bluish-grey, spongy nodules associated with scars over pressure points and easily traumatized areas l… <chr [1]>   NA     NA             NA     NA        <lgl> <lgl>   
##  8 HP:0000286 <chr [6]>    biolink:PhenotypicFeature http://purl.obolibrary.org/obo/HP_0000286 <chr [7]>    Epicanthus              A fold of skin starting above the medial aspect of the upper eyelid and arching downward to cover, pa… <chr [1]>   NA     NA             NA     NA        <lgl> <lgl>   
##  9 HP:0031364 <chr [6]>    biolink:PhenotypicFeature http://purl.obolibrary.org/obo/HP_0031364 <chr [1]>    Ecchymosis              A purpuric lesion that is larger than 1 cm in diameter.                                                <chr [1]>   NA     NA             NA     NA        <lgl> <lgl>   
## 10 HP:0001537 <chr [6]>    biolink:PhenotypicFeature http://purl.obolibrary.org/obo/HP_0001537 <chr [1]>    Umbilical hernia        Protrusion of abdominal contents through a defect in the abdominal wall musculature around the umbili… <chr [1]>   NA     NA             NA     NA        <lgl> <lgl>   
## # ℹ 63 more rows
## 
## [[4]]
…
