MonarchR Basics • monarchr
…
cf <- monarch_search("Cystic Fibrosis", limit = 1) %>%
    fetch_edges(result_categories = "biolink:Gene") %>%
    fetch_edges(direction = "out", predicates = "biolink:has_phenotype")

## Joining with `by = join_by(id, category, pcategory, iri, synonym, xref, name, description, provided_by)`
## Joining with `by = join_by(id, category, pcategory, iri, synonym, xref, name, description, provided_by, in_taxon_label, symbol, full_name, in_taxon)`

shared_nodes <- inner_join(nodes(fa), nodes(cf))

## Joining with `by = join_by(id, category, pcategory, iri, synonym, xref, name, description, provided_by, in_taxon_label, symbol, full_name, in_taxon)`

shared_nodes

## # A tibble: 142 × 13
##    id         category     pcategory                 iri                                       synonym      xref         name                               description                                                                                 provided_by in_taxon_label symbol full_name in_taxon
##    <chr>      <named list> <chr>                     <chr>                                     <named list> <named list> <chr>                              <chr>                                                                                       <named lis> <chr>          <chr>  <chr>     <named >
##  1 HP:0002027 <chr [6]>    biolink:PhenotypicFeature http://purl.obolibrary.org/obo/HP_0002027 <chr [7]>    <chr [4]>    Abdominal pain                     An unpleasant sensation characterized by physical discomfort (such as pricking, throbbing,… <chr [1]>   NA             NA     NA        <lgl>   
##  2 HP:0002650 <chr [6]>    biolink:PhenotypicFeature http://purl.obolibrary.org/obo/HP_0002650 <lgl [1]>    <chr [6]>    Scoliosis                          The presence of an abnormal lateral curvature of the spine.                                 <chr [1]>   NA             NA     NA        <lgl>   
##  3 HP:0012210 <chr [6]>    biolink:PhenotypicFeature http://purl.obolibrary.org/obo/HP_0012210 <chr [8]>    <chr [3]>    Abnormal renal morphology          Any structural anomaly of the kidney.                                                       <chr [1]>   NA             NA     NA        <lgl>   
##  4 HP:0012639 <chr [6]>    biolink:PhenotypicFeature http://purl.obolibrary.org/obo/HP_0012639 <chr [2]>    <chr [3]>    Abnormal nervous system morphology A structural anomaly of the nervous system.                                                 <chr [1]>   NA             NA     NA        <lgl>   
##  5 HP:0002039 <chr [6]>    biolink:PhenotypicFeature http://purl.obolibrary.org/obo/HP_0002039 <chr [1]>    <chr [3]>    Anorexia                           Anorexia, or the loss of appetite for food, is a medical condition.                         <chr [1]>   NA             NA     NA        <lgl>   
##  6 HP:0011463 <chr [6]>    biolink:PhenotypicFeature http://purl.obolibrary.org/obo/HP_0011463 <chr [1]>    <chr [1]>    Childhood onset                    Onset of disease at the age of between 1 and 5 years.                                       <chr [1]>   NA             NA     NA        <lgl>   
##  7 HP:0008053 <chr [6]>    biolink:PhenotypicFeature http://purl.obolibrary.org/obo/HP_0008053 <chr [2]>    <chr [1]>    Aplasia/Hypoplasia of the iris     Absence or underdevelopment of the iris.                                                    <chr [1]>   NA             NA     NA        <lgl>   
##  8 HP:0002716 <chr [6]>    biolink:PhenotypicFeature http://purl.obolibrary.org/obo/HP_0002716 <chr [2]>    <chr [3]>    Lymphadenopathy                    Enlargment (swelling) of a lymph node.                                                      <chr [1]>   NA             NA     NA        <lgl>   
##  9 HP:0006501 <chr [6]>    biolink:PhenotypicFeature http://purl.obolibrary.org/obo/HP_0006501 <chr [4]>    <chr [1]>    Aplasia/Hypoplasia of the radius   A small/hypoplastic or absent/aplastic radius.                                              <chr [1]>   NA             NA     NA        <lgl>   
## 10 HP:0001738 <chr [6]>    biolink:PhenotypicFeature http://purl.obolibrary.org/obo/HP_0001738 <chr [2]>    <chr [5]>    Exocrine pancreatic insufficiency  Impaired function of the exocrine pancreas associated with a reduced ability to digest foo… <chr [1]>   NA             NA     NA        <lgl>   
## # ℹ 132 more rows
…
eds_search %>%                                                 # starting with a graph with 5 disease nodes
    explode() %>%                                                # split into a list of 5 single-node graphs
    lapply(fetch_edges) %>%                                      # fetch neighborhood edges for each graph 
    lapply(nodes) %>%                                            # extract nodes df from each graph
    lapply(function(nodes_df) {filter(nodes_df, is.na(source))}) # remove original searched nodes from each df

## Joining with `by = join_by(id, category, pcategory, iri, synonym, xref, name, description, provided_by)`
## Joining with `by = join_by(id, category, pcategory, iri, synonym, xref, name, description, provided_by)`
## Joining with `by = join_by(id, category, pcategory, iri, synonym, xref, name, description, provided_by)`
## Joining with `by = join_by(id, category, pcategory, iri, synonym, xref, name, description, provided_by)`
## Joining with `by = join_by(id, category, pcategory, iri, synonym, xref, name, description, provided_by)`

## [[1]]
## # A tibble: 73 × 14
##    id         category     pcategory                 iri                                       synonym      xref         name                    description                                                                                     provided_by source in_taxon_label symbol full_name in_taxon
##    <chr>      <named list> <chr>                     <chr>                                     <named list> <named list> <chr>                   <chr>                                                                                           <named lis> <chr>  <chr>          <chr>  <chr>     <named >
##  1 HP:0001058 <chr [6]>    biolink:PhenotypicFeature http://purl.obolibrary.org/obo/HP_0001058 <chr [1]>    <chr [1]>    Poor wound healing      A reduced ability to heal cutaneous wounds.                                                     <chr [1]>   NA     NA             NA     NA        <lgl>   
##  2 HP:0003834 <chr [6]>    biolink:PhenotypicFeature http://purl.obolibrary.org/obo/HP_0003834 <chr [1]>    <chr [4]>    Shoulder dislocation    A displacement or misalignment of the humerus with respect to the other bones of the should jo… <chr [1]>   NA     NA             NA     NA        <lgl>   
##  3 HP:0030009 <chr [6]>    biolink:PhenotypicFeature http://purl.obolibrary.org/obo/HP_0030009 <chr [1]>    <chr [3]>    Cervical insufficiency  A cervix that shows a painless dilation and shortening during the second trimester of pregnanc… <chr [1]>   NA     NA             NA     NA        <lgl>   
##  4 HP:0000993 <chr [6]>    biolink:PhenotypicFeature http://purl.obolibrary.org/obo/HP_0000993 <chr [1]>    <chr [1]>    Molluscoid pseudotumors Bluish-grey, spongy nodules associated with scars over pressure points and easily traumatized … <chr [1]>   NA     NA             NA     NA        <lgl>   
##  5 HP:0001278 <chr [6]>    biolink:PhenotypicFeature http://purl.obolibrary.org/obo/HP_0001278 <chr [2]>    <chr [3]>    Orthostatic hypotension A form of hypotension characterized by a sudden fall in blood pressure that occurs when a pers… <chr [1]>   NA     NA             NA     NA        <lgl>   
##  6 HP:0001030 <chr [6]>    biolink:PhenotypicFeature http://purl.obolibrary.org/obo/HP_0001030 <chr [2]>    <chr [3]>    Fragile skin            Skin that splits easily with minimal injury.                                                    <chr [1]>   NA     NA             NA     NA        <lgl>   
##  7 HP:0001027 <chr [6]>    biolink:PhenotypicFeature http://purl.obolibrary.org/obo/HP_0001027 <chr [1]>    <chr [1]>    Soft, doughy skin       A skin texture that is unusually soft (and may feel silky), and has a malleable consistency re… <chr [1]>   NA     NA             NA     NA        <lgl>   
##  8 HP:0001252 <chr [6]>    biolink:PhenotypicFeature http://purl.obolibrary.org/obo/HP_0001252 <chr [6]>    <chr [4]>    Hypotonia               Hypotonia is an abnormally low muscle tone (the amount of tension or resistance to movement in… <chr [1]>   NA     NA             NA     NA        <lgl>   
##  9 HP:0001065 <chr [6]>    biolink:PhenotypicFeature http://purl.obolibrary.org/obo/HP_0001065 <chr [5]>    <chr [6]>    Striae distensae        Thinned, erythematous, depressed bands of atrophic skin. Initially, striae appear as flattened… <chr [1]>   NA     NA             NA     NA        <lgl>   
## 10 HP:0000938 <chr [6]>    biolink:PhenotypicFeature http://purl.obolibrary.org/obo/HP_0000938 <chr [3]>    <chr [5]>    Osteopenia              Osteopenia is a term to define bone density that is not normal but also not as low as osteopor… <chr [1]>   NA     NA             NA     NA        <lgl>   
## # ℹ 63 more rows
## 
## [[2]]
## # A tibble: 47 × 14
##    id            category     pcategory                 iri                                          synonym      xref         name                                                  description                                                 provided_by source in_taxon_label symbol full_name in_taxon
##    <chr>         <named list> <chr>                     <chr>                                        <named list> <named list> <chr>                                                 <chr>                                                       <named lis> <chr>  <chr>          <chr>  <chr>     <named >
##  1 MONDO:0021136 <chr [6]>    biolink:Disease           http://purl.obolibrary.org/obo/MONDO_0021136 <chr [1]>    <lgl [1]>    rare                                                  A disease or disorder is defined as rare in Europe when it… <chr [1]>   NA     NA             NA     NA        <lgl>   
##  2 MONDO:0021140 <chr [6]>    biolink:Disease           http://purl.obolibrary.org/obo/MONDO_0021140 <chr [1]>    <lgl [1]>    congenital                                            A characteristic of a disease in which the disease is pres… <chr [1]>   NA     NA             NA     NA        <lgl>   
##  3 MONDO:0012873 <chr [6]>    biolink:Disease           http://purl.obolibrary.org/obo/MONDO_0012873 <chr [5]>    <chr [6]>    Ehlers-Danlos syndrome, spondylocheirodysplastic type Ehlers-Danlos syndrome, spondylocheirodysplastic type is a… <chr [1]>   NA     NA             NA     NA        <lgl>   
##  4 MONDO:0020066 <chr [6]>    biolink:Disease           http://purl.obolibrary.org/obo/MONDO_0020066 <chr [20]>   <chr [15]>   Ehlers-Danlos syndrome                                The Ehlers–Danlos syndromes (EDS) are a clinically and gen… <chr [1]>   NA     NA             NA     NA        <lgl>   
##  5 MONDO:0015327 <chr [6]>    biolink:Disease           http://purl.obolibrary.org/obo/MONDO_0015327 <lgl [1]>    <chr [2]>    developmental anomaly of metabolic origin             NA                                                          <chr [1]>   NA     NA             NA     NA        <lgl>   
##  6 MONDO:0019052 <chr [6]>    biolink:Disease           http://purl.obolibrary.org/obo/MONDO_0019052 <chr [15]>   <chr [10]>   inborn errors of metabolism                           An inherited disorder resulting from an enzyme defect in b… <chr [1]>   NA     NA             NA     NA        <lgl>   
##  7 HP:0000506    <chr [6]>    biolink:PhenotypicFeature http://purl.obolibrary.org/obo/HP_0000506    <chr [4]>    <chr [3]>    Telecanthus                                           Distance between the inner canthi more than two standard d… <chr [1]>   NA     NA             NA     NA        <lgl>   
##  8 HP:0000963    <chr [6]>    biolink:PhenotypicFeature http://purl.obolibrary.org/obo/HP_0000963    <chr [1]>    <chr [2]>    Thin skin                                             Reduction in thickness of the skin, generally associated w… <chr [1]>   NA     NA             NA     NA        <lgl>   
##  9 HP:0001642    <chr [6]>    biolink:PhenotypicFeature http://purl.obolibrary.org/obo/HP_0001642    <chr [4]>    <chr [4]>    Pulmonic stenosis                                     A narrowing of the right ventricular outflow tract that ca… <chr [1]>   NA     NA             NA     NA        <lgl>   
## 10 HP:0001382    <chr [6]>    biolink:PhenotypicFeature http://purl.obolibrary.org/obo/HP_0001382    <chr [7]>    <chr [2]>    Joint hypermobility                                   The ability of a joint to move beyond its normal range of … <chr [1]>   NA     NA             NA     NA        <lgl>   
## # ℹ 37 more rows
## 
## [[3]]
## # A tibble: 30 × 10
##    id            category     pcategory       iri                                          synonym      xref         name                                                         description                                                                                             provided_by source
##    <chr>         <named list> <chr>           <chr>                                        <named list> <named list> <chr>                                                        <chr>                                                                                                   <named lis> <chr> 
##  1 MONDO:0034021 <chr [6]>    biolink:Disease http://purl.obolibrary.org/obo/MONDO_0034021 <chr [1]>    <chr [2]>    spondylodysplastic Ehlers-Danlos syndrome                    NA                                                                                                      <chr [1]>   NA    
##  2 MONDO:0002254 <chr [6]>    biolink:Disease http://purl.obolibrary.org/obo/MONDO_0002254 <chr [9]>    <chr [5]>    syndromic disease                                            A group of signs, symptoms, and clinicopathological characteristics that may or may not have a genetic… <chr [1]>   NA    
##  3 MONDO:0007523 <chr [6]>    biolink:Disease http://purl.obolibrary.org/obo/MONDO_0007523 <chr [17]>   <chr [10]>   Ehlers-Danlos syndrome, hypermobility type                   Ehlers-Danlos syndrome, hypermobility type (HT-EDS) is the most frequent form of EDS, a group of hered… <chr [1]>   NA    
##  4 MONDO:0016290 <chr [6]>    biolink:Disease http://purl.obolibrary.org/obo/MONDO_0016290 <chr [3]>    <chr [4]>    Hernández-Aguirre Negrete syndrome                           A syndrome is characterized by major seizures, dysmorphic features (round face, bulbous nose, wide mou… <chr [1]>   NA    
##  5 MONDO:0012114 <chr [6]>    biolink:Disease http://purl.obolibrary.org/obo/MONDO_0012114 <chr [3]>    <chr [4]>    Ehlers-Danlos syndrome, Beasley-Cohen type                   NA                                                                                                      <chr [1]>   NA    
##  6 MONDO:0007842 <chr [6]>    biolink:Disease http://purl.obolibrary.org/obo/MONDO_0007842 <chr [15]>   <chr [6]>    joint laxity, familial                                       A type of Ehlers-Danlos syndrome characterized by generalized joint hypermobility often complicated by… <chr [1]>   NA    
##  7 MONDO:0019755 <chr [6]>    biolink:Disease http://purl.obolibrary.org/obo/MONDO_0019755 <chr [6]>    <chr [4]>    developmental defect during embryogenesis                    A disease that has its basis in the disruption of embryonic morphogenesis.                              <chr [1]>   NA    
##  8 MONDO:0003847 <chr [6]>    biolink:Disease http://purl.obolibrary.org/obo/MONDO_0003847 <chr [12]>   <chr [7]>    hereditary disease                                           A disease that is caused by genetic modifications where those modifications are inherited from a paren… <chr [1]>   NA    
##  9 MONDO:0016469 <chr [6]>    biolink:Disease http://purl.obolibrary.org/obo/MONDO_0016469 <chr [1]>    <chr [2]>    Ehlers-Danlos syndrome, vascular-like type                   Ehlers-Danlos, vascular-like type is an adult-onset form of Ehlers-Danlos syndrome characterized by sp… <chr [1]>   NA    
## 10 MONDO:0007528 <chr [6]>    biolink:Disease http://purl.obolibrary.org/obo/MONDO_0007528 <chr [3]>    <chr [3]>    Ehlers-Danlos syndrome, autosomal dominant, type unspecified NA                                                                                                      <chr [1]>   NA    
## # ℹ 20 more rows
## 
## [[4]]
…
